Basic data analyses – Czech Vegetation Database
…
ℹ Use `spec()` to retrieve the full column specification for this data.
ℹ Specify the column types or set `show_col_types = FALSE` to quiet this message.

2.2 Basic data handling

Select extracts columns/variables based on their names or position. Select can be also used in combination with stringr package to identify the pattern in the names: try several options: starts_with, ends_with or more general one contains. With the use of select in your script you can order the variables always in the same way e.g. ID, forest type, species number, productivity, even during import. And you can also rename the variables using select, to get exactly what you need.

env_extra %>% 
  select(ID=releve_nr, forest_type=forest_type_name, species_nr=herbs, productivity=biomass) 

# A tibble: 65 × 4
      ID forest_type         species_nr productivity
   <dbl> <chr>                    <dbl>        <dbl>
 1     1 oak hornbeam forest         26         12.8
 2     2 oak forest                  13          9.9
 3     3 oak forest                  14         15.2
 4     4 oak forest                  15         16  
 5     5 oak forest                  13         20.7
 6     6 oak forest                  16         46.4
 7     7 oak forest                  17         49.2
 8     8 oak hornbeam forest         21         48.7
 9     9 oak hornbeam forest         15         13.8
10    10 oak forest                  14         79.1
# ℹ 55 more rows
…
or those that are listed

env_extra %>% 
  filter(forest_type_name %in% c("alluvial forest", "ravine forest"))

# A tibble: 21 × 22
   releve_nr forest_type forest_type_name herbs juveniles cover_e1 biomass
       <dbl>       <dbl> <chr>            <dbl>     <dbl>    <dbl>   <dbl>
 1       101           4 alluvial forest     28         6       90    91.1
 2       103           4 alluvial forest     35         5       80   114. 
 3       104           4 alluvial forest     25        11       85   188. 
 4       105           3 ravine forest       12        10       80    65.5
 5       106           3 ravine forest       16         0       75    33.6
 6       108           3 ravine forest       28         7       70    82.3
 7       110           4 alluvial forest     37         4       95   126. 
 8       111           4 alluvial forest     26        10       85    84.8
 9       113           4 alluvial forest     37        10       70    74.5
10       114           3 ravine forest       12         6       50    71.5
# ℹ 11 more rows
# ℹ 15 more variables: soil_depth_categ <dbl>, p_h_k_cl <dbl>, slope <dbl>,
#   altitude <dbl>, canopy_e3 <dbl>, radiation <dbl>, heat <dbl>,
#   trans_dir <dbl>, trans_dif <dbl>, trans_tot <dbl>, eiv_light <dbl>,
#   eiv_moisture <dbl>, eiv_soilreaction <dbl>, eiv_nutrients <dbl>, twi <dbl>
…
2.4 Community weighted means

Summarise is often used for getting so-called community means or community weighted means. For example we have traits for individual species and we want to calculate a mean for each site and compare it. We can also consider to use abundance to weight the result. This is called community weighted mean and it simply gives higher importance to those species that are more abundant and lower importance to the rare once. Here the abundance is approximated as percentage cover in the site. The example below compares mean plant height both weighted and unweighted. To have meaningful values, I looked just at the herb-layers species.

spe %>%
  left_join(plant_height) %>%
  filter(layer==6)%>%
  summarise(meanHeight= mean(height_mean, na.rm=T),
            meanHeight_weighted = weighted.mean(height_mean, cover_perc, na.rm = TRUE),
            .by=releve_nr)

Joining with `by = join_by(species)`

# A tibble: 65 × 3
   releve_nr meanHeight meanHeight_weighted
       <dbl>      <dbl>               <dbl>
 1         1      0.364               0.322
 2         2      0.459               0.504
 3         3      0.408               0.388
 4         4      0.570               0.515
 5         5      0.566               0.528
 6         6      0.577               0.573
 7         7      0.498               0.559
 8         8      0.423               0.710
 9         9      0.543               0.494
10        10      0.5                 0.527
# ℹ 55 more rows

2.5 Ellenberg indicator values

In the same way we can calculate community means across more variables. Here we will try the Ellenberg indicator values (abbreviated as EIV, measures of species demands for the particular factors, the higher value mean higher demands or affinity to habitats with higher values of these environmental factors). We will apply them just for presences of species, so no weights. Therefore we do not need to care that much for the differences among layers. However, we will keep each species only once (list of unique species for each plot), so we will remove information about layers first and use distinct. Alternative is to add #filter(Layer==6)%>% if we want to focus on herb-layer only

spe %>%
  left_join(indicator_values) %>%
  select(-c(layer,cover_perc))%>%
  distinct()%>%
  group_by(releve_nr)%>%
  summarise(across(starts_with("eiv"), ~ mean(.x, na.rm = TRUE)))

Joining with `by = join_by(species)`

# A tibble: 65 × 7
   releve_nr eiv_light eiv_temperature eiv_moisture eiv_reaction eiv_nutrients
       <dbl>     <dbl>           <dbl>        <dbl>        <dbl>         <dbl>
 1         1      5.08            5.55         4.63         6.53          4.95
 2         2      4.87            5.2          4.8          5             4.33
 3         3      4.87            5.13         4.8          5             4.4 
 4         4      5.32            5.53         4.47         5.79          4.26
 5         5      6.07            5.57         4.14         5.57          3.86
 6         6      5.69            5.56         4.44         6.56          5.25
 7         7      5.74            5.47         4.42         6.26          4.95
 8         8      5               5.38         4.67         5.43          4.62
 9         9      5.26            5.74         4.53         6             4.58
10        10      6.33            5.87         3.73         6.13          3.8 
# ℹ 55 more rows
# ℹ 1 more variable: eiv_salinity <dbl>
…
