Export to other formats – Czech Vegetation Database
…
spe <- read_csv("data/spe.csv") 

New names:
Rows: 4583 Columns: 6
── Column specification
──────────────────────────────────────────────────────── Delimiter: "," chr
(1): species dbl (5): ...1, releve_nr, nonvascular, layer, cover_perc
ℹ Use `spec()` to retrieve the full column specification for this data. ℹ
Specify the column types or set `show_col_types = FALSE` to quiet this message.
• `` -> `...1`

tibble(spe)

# A tibble: 4,583 × 6
    ...1 releve_nr species                   nonvascular layer cover_perc
   <dbl>     <dbl> <chr>                           <dbl> <dbl>      <dbl>
 1     1    183111 Carex digitata                      0     6        0.5
 2     2    183111 Carpinus betulus                    0     7        3  
 3     3    183111 Cytisus nigricans                   0     6        0.1
 4     4    183111 Festuca ovina                       0     6        3  
 5     5    183111 Fraxinus excelsior                  0     7        0.1
 6     6    183111 Galium rotundifolium                0     6        0.1
 7     7    183111 Hieracium lachenalii                0     6        3  
 8     8    183111 Hieracium murorum                   0     6        0.5
 9     9    183111 Hieracium sabaudum s.lat.           0     6        0.1
10    10    183111 Hypericum perforatum                0     6        0.1
# ℹ 4,573 more rows

We can see that there are plant species names sorted by releve_nr, where each number indicates a vegetation record from one specific site (can be also called vegetation plot or sample). We may need to change the species names to be in the compact format, without any spaces, just underscores. For this we will use mutate function with str_replace (for string specification) indicating that each space should be changed to underscore and we will directly apply it to the original column.

spe %>%    
  mutate(species = str_replace_all(species, " ", "_"))

# A tibble: 4,583 × 6
    ...1 releve_nr species                   nonvascular layer cover_perc
   <dbl>     <dbl> <chr>                           <dbl> <dbl>      <dbl>
 1     1    183111 Carex_digitata                      0     6        0.5
 2     2    183111 Carpinus_betulus                    0     7        3  
 3     3    183111 Cytisus_nigricans                   0     6        0.1
 4     4    183111 Festuca_ovina                       0     6        3  
 5     5    183111 Fraxinus_excelsior                  0     7        0.1
 6     6    183111 Galium_rotundifolium                0     6        0.1
 7     7    183111 Hieracium_lachenalii                0     6        3  
 8     8    183111 Hieracium_murorum                   0     6        0.5
 9     9    183111 Hieracium_sabaudum_s.lat.           0     6        0.1
10    10    183111 Hypericum_perforatum                0     6        0.1
# ℹ 4,573 more rows
…
Argument na.rm indicates what to do if in one of the combined columns there is no value but NA. We have set this argument to TRUE to remove the NA. If you keep it FALSE it can happen that in some data the new string will be a_NA or NA_b, or even NA_NA (see line 4 of our example).

Remove argument set to TRUE will remove the original columns which we used to combine the new one (in the example above you will have only z). In our case we will keep original columns for visual checking and we will use select function in the next step to remove them.

Note that function that works in an opposite direction is called separate or separate_wider_delim

spe %>%   
  mutate(species = str_replace_all(species, " ", "_"))%>%   
  unite("species_layer", species,layer, na.rm = TRUE, remove = FALSE) 

# A tibble: 4,583 × 7
    ...1 releve_nr species_layer            species nonvascular layer cover_perc
   <dbl>     <dbl> <chr>                    <chr>         <dbl> <dbl>      <dbl>
 1     1    183111 Carex_digitata_6         Carex_…           0     6        0.5
 2     2    183111 Carpinus_betulus_7       Carpin…           0     7        3  
 3     3    183111 Cytisus_nigricans_6      Cytisu…           0     6        0.1
 4     4    183111 Festuca_ovina_6          Festuc…           0     6        3  
 5     5    183111 Fraxinus_excelsior_7     Fraxin…           0     7        0.1
 6     6    183111 Galium_rotundifolium_6   Galium…           0     6        0.1
 7     7    183111 Hieracium_lachenalii_6   Hierac…           0     6        3  
 8     8    183111 Hieracium_murorum_6      Hierac…           0     6        0.5
 9     9    183111 Hieracium_sabaudum_s.la… Hierac…           0     6        0.1
10    10    183111 Hypericum_perforatum_6   Hyperi…           0     6        0.1
# ℹ 4,573 more rows

At this point we have everything we need to use it as input for the wide format table: releve_nr. species_layer and values of the abundance saved as cover_perc. One more step is to select only these or to deselect (-) those not needed.

spe %>%   
  mutate(species = str_replace_all(species, " ", "_"))%>%   
  unite("species_layer", species,layer, na.rm = TRUE, remove = FALSE)%>%
  select(releve_nr, species_layer, cover_perc)

# A tibble: 4,583 × 3
   releve_nr species_layer               cover_perc
       <dbl> <chr>                            <dbl>
 1    183111 Carex_digitata_6                   0.5
 2    183111 Carpinus_betulus_7                 3  
 3    183111 Cytisus_nigricans_6                0.1
 4    183111 Festuca_ovina_6                    3  
 5    183111 Fraxinus_excelsior_7               0.1
 6    183111 Galium_rotundifolium_6             0.1
 7    183111 Hieracium_lachenalii_6             3  
 8    183111 Hieracium_murorum_6                0.5
 9    183111 Hieracium_sabaudum_s.lat._6        0.1
10    183111 Hypericum_perforatum_6             0.1
# ℹ 4,573 more rows

Now we can finaly use the pivot wider function to transform the data. We have to specify from where we are taking the names of new variables (names_from) and from where we should take the values which should appear in the table (values_from). Since we changed the format, all species, even those not occurring in that particular site/plot have to get some values. Therefore, one more step is to fill the empty cells by zeros using values_fill. In this case we can do that, because we know that if the species was absent its abundance was exactly 0.

spe %>%   
  mutate(species = str_replace_all(species, " ", "_"))%>%   
  unite("species_layer", species,layer, na.rm = TRUE, remove = FALSE)%>%
  pivot_wider(names_from = species_layer, 
              values_from = cover_perc, 
              values_fill = 0) -> spe_wide

tibble(spe)

# A tibble: 4,583 × 6
    ...1 releve_nr species                   nonvascular layer cover_perc
   <dbl>     <dbl> <chr>                           <dbl> <dbl>      <dbl>
 1     1    183111 Carex digitata                      0     6        0.5
 2     2    183111 Carpinus betulus                    0     7        3  
 3     3    183111 Cytisus nigricans                   0     6        0.1
 4     4    183111 Festuca ovina                       0     6        3  
 5     5    183111 Fraxinus excelsior                  0     7        0.1
 6     6    183111 Galium rotundifolium                0     6        0.1
 7     7    183111 Hieracium lachenalii                0     6        3  
 8     8    183111 Hieracium murorum                   0     6        0.5
 9     9    183111 Hieracium sabaudum s.lat.           0     6        0.1
10    10    183111 Hypericum perforatum                0     6        0.1
# ℹ 4,573 more rows
…
